…
load the data

``` r
brfss_data = p8105.datasets::brfss_smart2010 %>% 
  janitor::clean_names() %>%
  rename(state = locationabbr, county_state = locationdesc) %>%
  filter(topic == "Overall Health") %>% # focus on overall health
  filter(response %in% c("Excellent", "Very good", "Good", "Fair", "Poor")) %>%
  mutate(response = factor(response, levels = c("Excellent", "Very good", "Good", "Fair", "Poor")))
  
brfss_data
```

    ## # A tibble: 10,625 x 23
    ##     year state county_state class topic question response sample_size
    ##    <int> <chr> <chr>        <chr> <chr> <chr>    <fct>          <int>
    ##  1  2010 AL    AL - Jeffer… Heal… Over… How is … Excelle…          94
    ##  2  2010 AL    AL - Jeffer… Heal… Over… How is … Very go…         148
    ##  3  2010 AL    AL - Jeffer… Heal… Over… How is … Good             208
    ##  4  2010 AL    AL - Jeffer… Heal… Over… How is … Fair             107
    ##  5  2010 AL    AL - Jeffer… Heal… Over… How is … Poor              45
    ##  6  2010 AL    AL - Mobile… Heal… Over… How is … Excelle…          91
    ##  7  2010 AL    AL - Mobile… Heal… Over… How is … Very go…         177
    ##  8  2010 AL    AL - Mobile… Heal… Over… How is … Good             224
    ##  9  2010 AL    AL - Mobile… Heal… Over… How is … Fair             120
    ## 10  2010 AL    AL - Mobile… Heal… Over… How is … Poor              66
    ## # ... with 10,615 more rows, and 15 more variables: data_value <dbl>,
    ## #   confidence_limit_low <dbl>, confidence_limit_high <dbl>,
    ## #   display_order <int>, data_value_unit <chr>, data_value_type <chr>,
    ## #   data_value_footnote_symbol <chr>, data_value_footnote <chr>,
    ## #   data_source <chr>, class_id <chr>, topic_id <chr>, location_id <chr>,
    ## #   question_id <chr>, respid <chr>, geo_location <chr>
…
    ## [1] 134

There are 134 distinct aisles.

``` r
items = instacrat_data %>%
        group_by(aisle) %>%
        summarise(aisle_num = n()) %>%
        arrange(desc(aisle_num))
items
```

    ## # A tibble: 134 x 2
    ##    aisle                         aisle_num
    ##    <chr>                             <int>
    ##  1 fresh vegetables                 150609
    ##  2 fresh fruits                     150473
    ##  3 packaged vegetables fruits        78493
    ##  4 yogurt                            55240
    ##  5 packaged cheese                   41699
    ##  6 water seltzer sparkling water     36617
    ##  7 milk                              32644
    ##  8 chips pretzels                    31269
    ##  9 soy lactosefree                   26240
    ## 10 bread                             23635
    ## # ... with 124 more rows
…
# do some data cleaning
noaa_tidy_data =
        separate(noaa_data, date, into = c("year", "month", "day"), sep = "-") %>%
        mutate(prcp = prcp/10,
               snow = snow/10, 
               tmin = as.integer(tmin)/10,
               tmax = as.integer(tmax)/10,
               year = as.integer(year),
               month = as.integer(month),
               day = as.integer(day)
        ) 
noaa_tidy_data
```

    ## # A tibble: 2,595,176 x 9
    ##    id           year month   day  prcp  snow  snwd  tmax  tmin
    ##    <chr>       <int> <int> <int> <dbl> <dbl> <int> <dbl> <dbl>
    ##  1 US1NYAB0001  2007    11     1    NA    NA    NA    NA    NA
    ##  2 US1NYAB0001  2007    11     2    NA    NA    NA    NA    NA
    ##  3 US1NYAB0001  2007    11     3    NA    NA    NA    NA    NA
    ##  4 US1NYAB0001  2007    11     4    NA    NA    NA    NA    NA
    ##  5 US1NYAB0001  2007    11     5    NA    NA    NA    NA    NA
    ##  6 US1NYAB0001  2007    11     6    NA    NA    NA    NA    NA
    ##  7 US1NYAB0001  2007    11     7    NA    NA    NA    NA    NA
    ##  8 US1NYAB0001  2007    11     8    NA    NA    NA    NA    NA
    ##  9 US1NYAB0001  2007    11     9    NA    NA    NA    NA    NA
    ## 10 US1NYAB0001  2007    11    10    NA    NA    NA    NA    NA
    ## # ... with 2,595,166 more rows
…
