P8105_hw3_yx2510
…
problem one

load the data

brfss_data = p8105.datasets::brfss_smart2010 %>% 
  janitor::clean_names() %>%
  rename(state = locationabbr, county_state = locationdesc) %>%
  filter(topic == "Overall Health") %>%
  filter(response %in% c("Excellent", "Very good", "Good", "Fair", "Poor")) %>%
  mutate(response = as.factor(response))
  
brfss_data

## # A tibble: 10,625 x 23
##     year state county_state class topic question response sample_size
##    <int> <chr> <chr>        <chr> <chr> <chr>    <fct>          <int>
##  1  2010 AL    AL - Jeffer Heal Over How is  Excelle          94
##  2  2010 AL    AL - Jeffer Heal Over How is  Very go         148
##  3  2010 AL    AL - Jeffer Heal Over How is  Good             208
##  4  2010 AL    AL - Jeffer Heal Over How is  Fair             107
##  5  2010 AL    AL - Jeffer Heal Over How is  Poor              45
##  6  2010 AL    AL - Mobile Heal Over How is  Excelle          91
##  7  2010 AL    AL - Mobile Heal Over How is  Very go         177
##  8  2010 AL    AL - Mobile Heal Over How is  Good             224
##  9  2010 AL    AL - Mobile Heal Over How is  Fair             120
## 10  2010 AL    AL - Mobile Heal Over How is  Poor              66
## # ... with 10,615 more rows, and 15 more variables: data_value <dbl>,
## #   confidence_limit_low <dbl>, confidence_limit_high <dbl>,
## #   display_order <int>, data_value_unit <chr>, data_value_type <chr>,
## #   data_value_footnote_symbol <chr>, data_value_footnote <chr>,
## #   data_source <chr>, class_id <chr>, topic_id <chr>, location_id <chr>,
## #   question_id <chr>, respid <chr>, geo_location <chr>
…
